Cikkszám;Vevőkód;Vevocsoport;Kedvezményes Ár;Kedvezmény kezdete;Kedvezmény vége;
1000;W000001;;1900.000000;20130801;20130831;
1001;;;1900.000000;20130801;;
1001;;8;1900.000000;20130801;;
1001;V0105;;1900.000000;20130801;;
1001;;13;1900.000000;20130801;;
