hungaro_address;1;1
hungaro_affiliate;1;1
hungaro_affiliate_transaction;1;1
hungaro_apri;1;1
hungaro_apri_unsubscribe;1;1
hungaro_attribute;1;1
hungaro_attribute_description;1;1
hungaro_attribute_group;1;1
hungaro_attribute_group_description;1;1
hungaro_banner;1;1
hungaro_banner_image;1;1
hungaro_banner_image_description;1;1
hungaro_biztositas;;1
hungaro_category;1;1
hungaro_category_description;1;1
hungaro_category_filter;1;1
hungaro_category_path;1;1
hungaro_category_to_layout;1;1
hungaro_category_to_store;1;1
hungaro_category_view;1;1
hungaro_country;;1
hungaro_coupon;1;1
hungaro_coupon_history;1;1
hungaro_coupon_product;1;1
hungaro_currency;;1
hungaro_customer;1;1
hungaro_customer_extension;1;1
hungaro_customer_group;1;1
hungaro_customer_ip;1;1
hungaro_customer_ip_blacklist;1;1
hungaro_customer_newsletter_categories;1;1
hungaro_customer_reward;1;1
hungaro_customer_special;1;1
hungaro_customer_transaction;1;1
hungaro_download;1;1
hungaro_download_description;1;1
hungaro_ecbanner;1;1
hungaro_ecbanner_image;1;1
hungaro_ecbanner_image_description;1;1
hungaro_extension;;1
hungaro_faq;1;1
hungaro_faq_categories;1;1
hungaro_filter;1;1
hungaro_filter_description;1;1
hungaro_filter_group;1;1
hungaro_filter_group_description;1;1
hungaro_filter_select;1;1
hungaro_fogalom_magyarazat;1;1
hungaro_fogalom_magyarazat_description;1;1
hungaro_geo_zone;;1
hungaro_information;;1
hungaro_information_description;;1
hungaro_information_to_layout;;1
hungaro_information_to_store;;1
hungaro_language;;1
hungaro_layout;;1
hungaro_layout_route;;1
hungaro_length_class;;1
hungaro_length_class_description;;1
hungaro_manufacturer;1;1
hungaro_manufacturer_to_store;1;1
hungaro_news;1;1
hungaro_news_description;1;1
hungaro_news_to_store;1;1
hungaro_ne_blacklist;1;1
hungaro_ne_clicks;1;1
hungaro_ne_draft;1;1
hungaro_ne_history;1;1
hungaro_ne_language_map;1;1
hungaro_ne_marketing;1;1
hungaro_ne_marketing_to_list;1;1
hungaro_ne_queue;1;1
hungaro_ne_schedule;1;1
hungaro_ne_stats;1;1
hungaro_ne_stats_personal;1;1
hungaro_ne_stats_personal_views;1;1
hungaro_ne_subscribe_box;1;1
hungaro_ne_template;1;1
hungaro_ne_template_data;1;1
hungaro_no_module;;1
hungaro_option;;1
hungaro_option_description;;1
hungaro_option_value;;1
hungaro_option_value_description;;1
hungaro_order;1;1
hungaro_order_download;1;1
hungaro_order_fraud;1;1
hungaro_order_history;1;1
hungaro_order_option;1;1
hungaro_order_product;1;1
hungaro_order_product_elhelyezes;1;1
hungaro_order_status;;1
hungaro_order_total;;1
hungaro_order_voucher;1;1
hungaro_pavblog_blog;1;1
hungaro_pavblog_blog_description;1;1
hungaro_pavblog_category;1;1
hungaro_pavblog_category_description;1;1
hungaro_pavblog_comment;1;1
hungaro_postcode;;1
hungaro_pre_order;1;1
hungaro_price_alert;1;1
hungaro_product;1;1
hungaro_product_accessory;1;1
hungaro_product_ajandek;1;1
hungaro_product_attribute;1;1
hungaro_product_customer;1;1
hungaro_product_customer_special;1;1
hungaro_product_customer_utalvany;1;1
hungaro_product_description;1;1
hungaro_product_discount;1;1
hungaro_product_elhelyezes;1;1
hungaro_product_filter;1;1
hungaro_product_general_accessory;1;1
hungaro_product_image;1;1
hungaro_product_imagebylocations;1;1
hungaro_product_imageinlocations;1;1
hungaro_product_option;1;1
hungaro_product_option_value;1;1
hungaro_product_package;1;1
hungaro_product_pdf;1;1
hungaro_product_related;1;1
hungaro_product_reward;1;1
hungaro_product_special;1;1
hungaro_product_tag;1;1
hungaro_product_to_category;1;1
hungaro_product_to_download;1;1
hungaro_product_to_layout;1;1
hungaro_product_to_special;1;1
hungaro_product_to_store;1;1
hungaro_product_video;1;1
hungaro_product_vonalkod;1;1
hungaro_product_warehouse;1;1
hungaro_profile;1;1
hungaro_profile_description;1;1
hungaro_redirect;1;1
hungaro_remembered_logins;1;1
hungaro_return;1;1
hungaro_return_action;1;1
hungaro_return_history;1;1
hungaro_return_reason;1;1
hungaro_return_status;1;1
hungaro_review;1;1
hungaro_setting;;1
hungaro_special_offer_reminder;1;1
hungaro_stock_status;;1
hungaro_store;1;1
hungaro_store_setting;1;1
hungaro_subscribe;1;1
hungaro_szamlazzhu;1;1
hungaro_tax_class;;1
hungaro_tax_rate;;1
hungaro_tax_rate_to_customer_group;1;1
hungaro_tax_rule;;1
hungaro_url_alias;1;1
hungaro_user;;1
hungaro_user_group;;1
hungaro_voucher;1;1
hungaro_voucher_history;1;1
hungaro_voucher_theme;1;1
hungaro_voucher_theme_description;1;1
hungaro_warehouse;1;1
hungaro_warehouse_description;1;1
hungaro_weight_class;;1
hungaro_weight_class_description;;1
hungaro_zone;;1
hungaro_zone_to_geo_zone;;1
kandh_log;1;1